................................
----------------------------------------------------------------------
Ran 32 tests in 0.003s

OK
Name               Stmts   Miss Branch BrPart  Cover   Missing
--------------------------------------------------------------
Diplomacy.py         117      0     48      0   100%
TestDiplomacy.py     125      0      0      0   100%
--------------------------------------------------------------
TOTAL                242      0     48      0   100%
