....
----------------------------------------------------------------------
Ran 4 tests in 0.001s

OK
Name               Stmts   Miss Branch BrPart  Cover   Missing
--------------------------------------------------------------
Diplomacy.py          54      3     32      6    90%   25->20, 39->42, 40->41, 41, 42->35, 43->44, 44, 49->52, 52
TestDiplomacy.py      25      0      0      0   100%
--------------------------------------------------------------
TOTAL                 79      3     32      6    92%
