................
----------------------------------------------------------------------
Ran 16 tests in 0.001s

OK
Name               Stmts   Miss Branch BrPart  Cover   Missing
--------------------------------------------------------------
Diplomacy.py          56      2     30      2    95%   59->60, 60, 61->62, 62
TestDiplomacy.py      88      0      0      0   100%
--------------------------------------------------------------
TOTAL                144      2     30      2    98%
