..............................
----------------------------------------------------------------------
Ran 30 tests in 0.006s

OK
Name               Stmts   Miss Branch BrPart  Cover   Missing
--------------------------------------------------------------
Diplomacy.py          88      1     54      1    99%   154->155, 155
TestDiplomacy.py     189      2     24      2    98%   221->224, 224, 236->239, 239
--------------------------------------------------------------
TOTAL                277      3     78      3    98%
