........
----------------------------------------------------------------------
Ran 8 tests in 0.004s

OK
Name               Stmts   Miss Branch BrPart  Cover   Missing
--------------------------------------------------------------
Diplomacy.py          59      0     40      1    99%   51->32
TestDiplomacy.py      46      0      0      0   100%
--------------------------------------------------------------
TOTAL                105      0     40      1    99%