.........................
----------------------------------------------------------------------
Ran 25 tests in 0.002s

OK
Name               Stmts   Miss Branch BrPart  Cover   Missing
--------------------------------------------------------------
Diplomacy.py          73      0     54      0   100%
TestDiplomacy.py     101      0      0      0   100%
--------------------------------------------------------------
TOTAL                174      0     54      0   100%
